^C:\USERS\MKRAS\DESKTOP\ПОЛІТЕХ\АЛГОРИТМИ\ЛАБ2\LAB2\TASK1\TASK1.CPP
C:\USERS\MKRAS\DESKTOP\Політех\Алгоритми\Лаб2\LAB2\TASK1\X64\DEBUG\VC143.PDB
C:\USERS\MKRAS\DESKTOP\Політех\Алгоритми\Лаб2\LAB2\TASK1\X64\DEBUG\VC143.IDB
C:\USERS\MKRAS\DESKTOP\Політех\Алгоритми\Лаб2\LAB2\TASK1\X64\DEBUG\TASK1.OBJ
