^C:\USERS\MKRAS\DESKTOP\ПОЛІТЕХ\АЛГОРИТМИ\ЛАБ1\LAB1\TASK2\TASK2.CPP
C:\USERS\MKRAS\DESKTOP\Політех\Алгоритми\Лаб1\LAB1\TASK2\X64\DEBUG\VC143.PDB
C:\USERS\MKRAS\DESKTOP\Політех\Алгоритми\Лаб1\LAB1\TASK2\X64\DEBUG\VC143.IDB
C:\USERS\MKRAS\DESKTOP\Політех\Алгоритми\Лаб1\LAB1\TASK2\X64\DEBUG\TASK2.OBJ
