﻿  TaskB.cpp
C:\Users\mkras\Desktop\Політех\Алгоритми\Лаб5\Lab5\TaskB\TaskB.cpp(10,12): warning C4244: аргумент: преобразование "time_t" в "unsigned int", возможна потеря данных
  TaskB.vcxproj -> C:\Users\mkras\Desktop\Політех\Алгоритми\Лаб5\Lab5\x64\Debug\TaskB.exe
